(['D:\\ProgWorkSpace\\tobiieyetracking\\videoEncoder\\tobiiUnpack.py'],
 ['D:\\ProgWorkSpace\\tobiieyetracking\\videoEncoder',
  'D:\\ProgWorkSpace\\tobiieyetracking\\videoEncoder'],
 ['codecs'],
 ['c:\\users\\tabuchi '
  'miona\\appdata\\local\\programs\\python\\python37\\lib\\site-packages\\_pyinstaller_hooks_contrib\\hooks\\stdhooks',
  'c:\\users\\tabuchi '
  'miona\\appdata\\local\\programs\\python\\python37\\lib\\site-packages\\_pyinstaller_hooks_contrib\\hooks\\stdhooks\\__pycache__',
  'c:\\users\\tabuchi '
  'miona\\appdata\\local\\programs\\python\\python37\\lib\\site-packages\\_pyinstaller_hooks_contrib\\hooks\\rthooks',
  'c:\\users\\tabuchi '
  'miona\\appdata\\local\\programs\\python\\python37\\lib\\site-packages\\_pyinstaller_hooks_contrib\\hooks\\rthooks\\__pycache__',
  'c:\\users\\tabuchi '
  'miona\\appdata\\local\\programs\\python\\python37\\lib\\site-packages\\_pyinstaller_hooks_contrib\\hooks'],
 [],
 [],
 False,
 False,
 False,
 '3.7.7 (tags/v3.7.7:d7c567b08f, Mar 10 2020, 10:41:24) [MSC v.1900 64 bit '
 '(AMD64)]',
 [('tobiiUnpack',
   'D:\\ProgWorkSpace\\tobiieyetracking\\videoEncoder\\tobiiUnpack.py',
   'PYSOURCE')],
 [('copy',
   'c:\\users\\tabuchi '
   'miona\\appdata\\local\\programs\\python\\python37\\lib\\copy.py',
   'PYMODULE'),
  ('tracemalloc',
   'c:\\users\\tabuchi '
   'miona\\appdata\\local\\programs\\python\\python37\\lib\\tracemalloc.py',
   'PYMODULE'),
  ('pickle',
   'c:\\users\\tabuchi '
   'miona\\appdata\\local\\programs\\python\\python37\\lib\\pickle.py',
   'PYMODULE'),
  ('pprint',
   'c:\\users\\tabuchi '
   'miona\\appdata\\local\\programs\\python\\python37\\lib\\pprint.py',
   'PYMODULE'),
  ('_strptime',
   'c:\\users\\tabuchi '
   'miona\\appdata\\local\\programs\\python\\python37\\lib\\_strptime.py',
   'PYMODULE'),
  ('datetime',
   'c:\\users\\tabuchi '
   'miona\\appdata\\local\\programs\\python\\python37\\lib\\datetime.py',
   'PYMODULE'),
  ('calendar',
   'c:\\users\\tabuchi '
   'miona\\appdata\\local\\programs\\python\\python37\\lib\\calendar.py',
   'PYMODULE'),
  ('argparse',
   'c:\\users\\tabuchi '
   'miona\\appdata\\local\\programs\\python\\python37\\lib\\argparse.py',
   'PYMODULE'),
  ('textwrap',
   'c:\\users\\tabuchi '
   'miona\\appdata\\local\\programs\\python\\python37\\lib\\textwrap.py',
   'PYMODULE'),
  ('gettext',
   'c:\\users\\tabuchi '
   'miona\\appdata\\local\\programs\\python\\python37\\lib\\gettext.py',
   'PYMODULE'),
  ('os',
   'c:\\users\\tabuchi '
   'miona\\appdata\\local\\programs\\python\\python37\\lib\\os.py',
   'PYMODULE'),
  ('subprocess',
   'c:\\users\\tabuchi '
   'miona\\appdata\\local\\programs\\python\\python37\\lib\\subprocess.py',
   'PYMODULE'),
  ('selectors',
   'c:\\users\\tabuchi '
   'miona\\appdata\\local\\programs\\python\\python37\\lib\\selectors.py',
   'PYMODULE'),
  ('threading',
   'c:\\users\\tabuchi '
   'miona\\appdata\\local\\programs\\python\\python37\\lib\\threading.py',
   'PYMODULE'),
  ('_threading_local',
   'c:\\users\\tabuchi '
   'miona\\appdata\\local\\programs\\python\\python37\\lib\\_threading_local.py',
   'PYMODULE'),
  ('contextlib',
   'c:\\users\\tabuchi '
   'miona\\appdata\\local\\programs\\python\\python37\\lib\\contextlib.py',
   'PYMODULE'),
  ('signal',
   'c:\\users\\tabuchi '
   'miona\\appdata\\local\\programs\\python\\python37\\lib\\signal.py',
   'PYMODULE'),
  ('ntpath',
   'c:\\users\\tabuchi '
   'miona\\appdata\\local\\programs\\python\\python37\\lib\\ntpath.py',
   'PYMODULE'),
  ('string',
   'c:\\users\\tabuchi '
   'miona\\appdata\\local\\programs\\python\\python37\\lib\\string.py',
   'PYMODULE'),
  ('genericpath',
   'c:\\users\\tabuchi '
   'miona\\appdata\\local\\programs\\python\\python37\\lib\\genericpath.py',
   'PYMODULE'),
  ('posixpath',
   'c:\\users\\tabuchi '
   'miona\\appdata\\local\\programs\\python\\python37\\lib\\posixpath.py',
   'PYMODULE'),
  ('stat',
   'c:\\users\\tabuchi '
   'miona\\appdata\\local\\programs\\python\\python37\\lib\\stat.py',
   'PYMODULE'),
  ('doctest',
   'c:\\users\\tabuchi '
   'miona\\appdata\\local\\programs\\python\\python37\\lib\\doctest.py',
   'PYMODULE'),
  ('unittest',
   'c:\\users\\tabuchi '
   'miona\\appdata\\local\\programs\\python\\python37\\lib\\unittest\\__init__.py',
   'PYMODULE'),
  ('unittest.signals',
   'c:\\users\\tabuchi '
   'miona\\appdata\\local\\programs\\python\\python37\\lib\\unittest\\signals.py',
   'PYMODULE'),
  ('unittest.main',
   'c:\\users\\tabuchi '
   'miona\\appdata\\local\\programs\\python\\python37\\lib\\unittest\\main.py',
   'PYMODULE'),
  ('unittest.runner',
   'c:\\users\\tabuchi '
   'miona\\appdata\\local\\programs\\python\\python37\\lib\\unittest\\runner.py',
   'PYMODULE'),
  ('unittest.loader',
   'c:\\users\\tabuchi '
   'miona\\appdata\\local\\programs\\python\\python37\\lib\\unittest\\loader.py',
   'PYMODULE'),
  ('unittest.suite',
   'c:\\users\\tabuchi '
   'miona\\appdata\\local\\programs\\python\\python37\\lib\\unittest\\suite.py',
   'PYMODULE'),
  ('unittest.case',
   'c:\\users\\tabuchi '
   'miona\\appdata\\local\\programs\\python\\python37\\lib\\unittest\\case.py',
   'PYMODULE'),
  ('logging',
   'c:\\users\\tabuchi '
   'miona\\appdata\\local\\programs\\python\\python37\\lib\\logging\\__init__.py',
   'PYMODULE'),
  ('unittest.result',
   'c:\\users\\tabuchi '
   'miona\\appdata\\local\\programs\\python\\python37\\lib\\unittest\\result.py',
   'PYMODULE'),
  ('unittest.util',
   'c:\\users\\tabuchi '
   'miona\\appdata\\local\\programs\\python\\python37\\lib\\unittest\\util.py',
   'PYMODULE'),
  ('pdb',
   'c:\\users\\tabuchi '
   'miona\\appdata\\local\\programs\\python\\python37\\lib\\pdb.py',
   'PYMODULE'),
  ('getopt',
   'c:\\users\\tabuchi '
   'miona\\appdata\\local\\programs\\python\\python37\\lib\\getopt.py',
   'PYMODULE'),
  ('pydoc',
   'c:\\users\\tabuchi '
   'miona\\appdata\\local\\programs\\python\\python37\\lib\\pydoc.py',
   'PYMODULE'),
  ('webbrowser',
   'c:\\users\\tabuchi '
   'miona\\appdata\\local\\programs\\python\\python37\\lib\\webbrowser.py',
   'PYMODULE'),
  ('socket',
   'c:\\users\\tabuchi '
   'miona\\appdata\\local\\programs\\python\\python37\\lib\\socket.py',
   'PYMODULE'),
  ('shutil',
   'c:\\users\\tabuchi '
   'miona\\appdata\\local\\programs\\python\\python37\\lib\\shutil.py',
   'PYMODULE'),
  ('zipfile',
   'c:\\users\\tabuchi '
   'miona\\appdata\\local\\programs\\python\\python37\\lib\\zipfile.py',
   'PYMODULE'),
  ('py_compile',
   'c:\\users\\tabuchi '
   'miona\\appdata\\local\\programs\\python\\python37\\lib\\py_compile.py',
   'PYMODULE'),
  ('tarfile',
   'c:\\users\\tabuchi '
   'miona\\appdata\\local\\programs\\python\\python37\\lib\\tarfile.py',
   'PYMODULE'),
  ('lzma',
   'c:\\users\\tabuchi '
   'miona\\appdata\\local\\programs\\python\\python37\\lib\\lzma.py',
   'PYMODULE'),
  ('_compression',
   'c:\\users\\tabuchi '
   'miona\\appdata\\local\\programs\\python\\python37\\lib\\_compression.py',
   'PYMODULE'),
  ('bz2',
   'c:\\users\\tabuchi '
   'miona\\appdata\\local\\programs\\python\\python37\\lib\\bz2.py',
   'PYMODULE'),
  ('email.message',
   'c:\\users\\tabuchi '
   'miona\\appdata\\local\\programs\\python\\python37\\lib\\email\\message.py',
   'PYMODULE'),
  ('email.policy',
   'c:\\users\\tabuchi '
   'miona\\appdata\\local\\programs\\python\\python37\\lib\\email\\policy.py',
   'PYMODULE'),
  ('email.contentmanager',
   'c:\\users\\tabuchi '
   'miona\\appdata\\local\\programs\\python\\python37\\lib\\email\\contentmanager.py',
   'PYMODULE'),
  ('email.quoprimime',
   'c:\\users\\tabuchi '
   'miona\\appdata\\local\\programs\\python\\python37\\lib\\email\\quoprimime.py',
   'PYMODULE'),
  ('email.headerregistry',
   'c:\\users\\tabuchi '
   'miona\\appdata\\local\\programs\\python\\python37\\lib\\email\\headerregistry.py',
   'PYMODULE'),
  ('email._header_value_parser',
   'c:\\users\\tabuchi '
   'miona\\appdata\\local\\programs\\python\\python37\\lib\\email\\_header_value_parser.py',
   'PYMODULE'),
  ('urllib',
   'c:\\users\\tabuchi '
   'miona\\appdata\\local\\programs\\python\\python37\\lib\\urllib\\__init__.py',
   'PYMODULE'),
  ('email.iterators',
   'c:\\users\\tabuchi '
   'miona\\appdata\\local\\programs\\python\\python37\\lib\\email\\iterators.py',
   'PYMODULE'),
  ('email.generator',
   'c:\\users\\tabuchi '
   'miona\\appdata\\local\\programs\\python\\python37\\lib\\email\\generator.py',
   'PYMODULE'),
  ('random',
   'c:\\users\\tabuchi '
   'miona\\appdata\\local\\programs\\python\\python37\\lib\\random.py',
   'PYMODULE'),
  ('bisect',
   'c:\\users\\tabuchi '
   'miona\\appdata\\local\\programs\\python\\python37\\lib\\bisect.py',
   'PYMODULE'),
  ('hashlib',
   'c:\\users\\tabuchi '
   'miona\\appdata\\local\\programs\\python\\python37\\lib\\hashlib.py',
   'PYMODULE'),
  ('email._encoded_words',
   'c:\\users\\tabuchi '
   'miona\\appdata\\local\\programs\\python\\python37\\lib\\email\\_encoded_words.py',
   'PYMODULE'),
  ('base64',
   'c:\\users\\tabuchi '
   'miona\\appdata\\local\\programs\\python\\python37\\lib\\base64.py',
   'PYMODULE'),
  ('email.charset',
   'c:\\users\\tabuchi '
   'miona\\appdata\\local\\programs\\python\\python37\\lib\\email\\charset.py',
   'PYMODULE'),
  ('email.encoders',
   'c:\\users\\tabuchi '
   'miona\\appdata\\local\\programs\\python\\python37\\lib\\email\\encoders.py',
   'PYMODULE'),
  ('email.base64mime',
   'c:\\users\\tabuchi '
   'miona\\appdata\\local\\programs\\python\\python37\\lib\\email\\base64mime.py',
   'PYMODULE'),
  ('email._policybase',
   'c:\\users\\tabuchi '
   'miona\\appdata\\local\\programs\\python\\python37\\lib\\email\\_policybase.py',
   'PYMODULE'),
  ('email.header',
   'c:\\users\\tabuchi '
   'miona\\appdata\\local\\programs\\python\\python37\\lib\\email\\header.py',
   'PYMODULE'),
  ('email.errors',
   'c:\\users\\tabuchi '
   'miona\\appdata\\local\\programs\\python\\python37\\lib\\email\\errors.py',
   'PYMODULE'),
  ('email.utils',
   'c:\\users\\tabuchi '
   'miona\\appdata\\local\\programs\\python\\python37\\lib\\email\\utils.py',
   'PYMODULE'),
  ('email._parseaddr',
   'c:\\users\\tabuchi '
   'miona\\appdata\\local\\programs\\python\\python37\\lib\\email\\_parseaddr.py',
   'PYMODULE'),
  ('email',
   'c:\\users\\tabuchi '
   'miona\\appdata\\local\\programs\\python\\python37\\lib\\email\\__init__.py',
   'PYMODULE'),
  ('email.parser',
   'c:\\users\\tabuchi '
   'miona\\appdata\\local\\programs\\python\\python37\\lib\\email\\parser.py',
   'PYMODULE'),
  ('email.feedparser',
   'c:\\users\\tabuchi '
   'miona\\appdata\\local\\programs\\python\\python37\\lib\\email\\feedparser.py',
   'PYMODULE'),
  ('quopri',
   'c:\\users\\tabuchi '
   'miona\\appdata\\local\\programs\\python\\python37\\lib\\quopri.py',
   'PYMODULE'),
  ('uu',
   'c:\\users\\tabuchi '
   'miona\\appdata\\local\\programs\\python\\python37\\lib\\uu.py',
   'PYMODULE'),
  ('optparse',
   'c:\\users\\tabuchi '
   'miona\\appdata\\local\\programs\\python\\python37\\lib\\optparse.py',
   'PYMODULE'),
  ('http.server',
   'c:\\users\\tabuchi '
   'miona\\appdata\\local\\programs\\python\\python37\\lib\\http\\server.py',
   'PYMODULE'),
  ('http',
   'c:\\users\\tabuchi '
   'miona\\appdata\\local\\programs\\python\\python37\\lib\\http\\__init__.py',
   'PYMODULE'),
  ('socketserver',
   'c:\\users\\tabuchi '
   'miona\\appdata\\local\\programs\\python\\python37\\lib\\socketserver.py',
   'PYMODULE'),
  ('mimetypes',
   'c:\\users\\tabuchi '
   'miona\\appdata\\local\\programs\\python\\python37\\lib\\mimetypes.py',
   'PYMODULE'),
  ('http.client',
   'c:\\users\\tabuchi '
   'miona\\appdata\\local\\programs\\python\\python37\\lib\\http\\client.py',
   'PYMODULE'),
  ('ssl',
   'c:\\users\\tabuchi '
   'miona\\appdata\\local\\programs\\python\\python37\\lib\\ssl.py',
   'PYMODULE'),
  ('html',
   'c:\\users\\tabuchi '
   'miona\\appdata\\local\\programs\\python\\python37\\lib\\html\\__init__.py',
   'PYMODULE'),
  ('html.entities',
   'c:\\users\\tabuchi '
   'miona\\appdata\\local\\programs\\python\\python37\\lib\\html\\entities.py',
   'PYMODULE'),
  ('pydoc_data.topics',
   'c:\\users\\tabuchi '
   'miona\\appdata\\local\\programs\\python\\python37\\lib\\pydoc_data\\topics.py',
   'PYMODULE'),
  ('pydoc_data',
   'c:\\users\\tabuchi '
   'miona\\appdata\\local\\programs\\python\\python37\\lib\\pydoc_data\\__init__.py',
   'PYMODULE'),
  ('tty',
   'c:\\users\\tabuchi '
   'miona\\appdata\\local\\programs\\python\\python37\\lib\\tty.py',
   'PYMODULE'),
  ('tempfile',
   'c:\\users\\tabuchi '
   'miona\\appdata\\local\\programs\\python\\python37\\lib\\tempfile.py',
   'PYMODULE'),
  ('urllib.parse',
   'c:\\users\\tabuchi '
   'miona\\appdata\\local\\programs\\python\\python37\\lib\\urllib\\parse.py',
   'PYMODULE'),
  ('tokenize',
   'c:\\users\\tabuchi '
   'miona\\appdata\\local\\programs\\python\\python37\\lib\\tokenize.py',
   'PYMODULE'),
  ('token',
   'c:\\users\\tabuchi '
   'miona\\appdata\\local\\programs\\python\\python37\\lib\\token.py',
   'PYMODULE'),
  ('sysconfig',
   'c:\\users\\tabuchi '
   'miona\\appdata\\local\\programs\\python\\python37\\lib\\sysconfig.py',
   'PYMODULE'),
  ('_osx_support',
   'c:\\users\\tabuchi '
   'miona\\appdata\\local\\programs\\python\\python37\\lib\\_osx_support.py',
   'PYMODULE'),
  ('distutils.log',
   'c:\\users\\tabuchi '
   'miona\\appdata\\local\\programs\\python\\python37\\lib\\distutils\\log.py',
   'PYMODULE'),
  ('distutils',
   'c:\\users\\tabuchi '
   'miona\\appdata\\local\\programs\\python\\python37\\lib\\distutils\\__init__.py',
   'PYMODULE'),
  ('distutils.archive_util',
   'c:\\users\\tabuchi '
   'miona\\appdata\\local\\programs\\python\\python37\\lib\\distutils\\archive_util.py',
   'PYMODULE'),
  ('distutils.dir_util',
   'c:\\users\\tabuchi '
   'miona\\appdata\\local\\programs\\python\\python37\\lib\\distutils\\dir_util.py',
   'PYMODULE'),
  ('distutils.file_util',
   'c:\\users\\tabuchi '
   'miona\\appdata\\local\\programs\\python\\python37\\lib\\distutils\\file_util.py',
   'PYMODULE'),
  ('distutils.dep_util',
   'c:\\users\\tabuchi '
   'miona\\appdata\\local\\programs\\python\\python37\\lib\\distutils\\dep_util.py',
   'PYMODULE'),
  ('distutils.spawn',
   'c:\\users\\tabuchi '
   'miona\\appdata\\local\\programs\\python\\python37\\lib\\distutils\\spawn.py',
   'PYMODULE'),
  ('distutils.debug',
   'c:\\users\\tabuchi '
   'miona\\appdata\\local\\programs\\python\\python37\\lib\\distutils\\debug.py',
   'PYMODULE'),
  ('distutils.errors',
   'c:\\users\\tabuchi '
   'miona\\appdata\\local\\programs\\python\\python37\\lib\\distutils\\errors.py',
   'PYMODULE'),
  ('distutils.ccompiler',
   'c:\\users\\tabuchi '
   'miona\\appdata\\local\\programs\\python\\python37\\lib\\distutils\\ccompiler.py',
   'PYMODULE'),
  ('distutils.fancy_getopt',
   'c:\\users\\tabuchi '
   'miona\\appdata\\local\\programs\\python\\python37\\lib\\distutils\\fancy_getopt.py',
   'PYMODULE'),
  ('distutils.util',
   'c:\\users\\tabuchi '
   'miona\\appdata\\local\\programs\\python\\python37\\lib\\distutils\\util.py',
   'PYMODULE'),
  ('distutils.filelist',
   'c:\\users\\tabuchi '
   'miona\\appdata\\local\\programs\\python\\python37\\lib\\distutils\\filelist.py',
   'PYMODULE'),
  ('distutils.sysconfig',
   'c:\\users\\tabuchi '
   'miona\\appdata\\local\\programs\\python\\python37\\lib\\distutils\\sysconfig.py',
   'PYMODULE'),
  ('distutils.text_file',
   'c:\\users\\tabuchi '
   'miona\\appdata\\local\\programs\\python\\python37\\lib\\distutils\\text_file.py',
   'PYMODULE'),
  ('platform',
   'c:\\users\\tabuchi '
   'miona\\appdata\\local\\programs\\python\\python37\\lib\\platform.py',
   'PYMODULE'),
  ('plistlib',
   'c:\\users\\tabuchi '
   'miona\\appdata\\local\\programs\\python\\python37\\lib\\plistlib.py',
   'PYMODULE'),
  ('xml.parsers.expat',
   'c:\\users\\tabuchi '
   'miona\\appdata\\local\\programs\\python\\python37\\lib\\xml\\parsers\\expat.py',
   'PYMODULE'),
  ('xml.parsers',
   'c:\\users\\tabuchi '
   'miona\\appdata\\local\\programs\\python\\python37\\lib\\xml\\parsers\\__init__.py',
   'PYMODULE'),
  ('xml',
   'c:\\users\\tabuchi '
   'miona\\appdata\\local\\programs\\python\\python37\\lib\\xml\\__init__.py',
   'PYMODULE'),
  ('xml.sax.expatreader',
   'c:\\users\\tabuchi '
   'miona\\appdata\\local\\programs\\python\\python37\\lib\\xml\\sax\\expatreader.py',
   'PYMODULE'),
  ('xml.sax.saxutils',
   'c:\\users\\tabuchi '
   'miona\\appdata\\local\\programs\\python\\python37\\lib\\xml\\sax\\saxutils.py',
   'PYMODULE'),
  ('urllib.request',
   'c:\\users\\tabuchi '
   'miona\\appdata\\local\\programs\\python\\python37\\lib\\urllib\\request.py',
   'PYMODULE'),
  ('getpass',
   'c:\\users\\tabuchi '
   'miona\\appdata\\local\\programs\\python\\python37\\lib\\getpass.py',
   'PYMODULE'),
  ('nturl2path',
   'c:\\users\\tabuchi '
   'miona\\appdata\\local\\programs\\python\\python37\\lib\\nturl2path.py',
   'PYMODULE'),
  ('ftplib',
   'c:\\users\\tabuchi '
   'miona\\appdata\\local\\programs\\python\\python37\\lib\\ftplib.py',
   'PYMODULE'),
  ('netrc',
   'c:\\users\\tabuchi '
   'miona\\appdata\\local\\programs\\python\\python37\\lib\\netrc.py',
   'PYMODULE'),
  ('http.cookiejar',
   'c:\\users\\tabuchi '
   'miona\\appdata\\local\\programs\\python\\python37\\lib\\http\\cookiejar.py',
   'PYMODULE'),
  ('urllib.response',
   'c:\\users\\tabuchi '
   'miona\\appdata\\local\\programs\\python\\python37\\lib\\urllib\\response.py',
   'PYMODULE'),
  ('urllib.error',
   'c:\\users\\tabuchi '
   'miona\\appdata\\local\\programs\\python\\python37\\lib\\urllib\\error.py',
   'PYMODULE'),
  ('xml.sax',
   'c:\\users\\tabuchi '
   'miona\\appdata\\local\\programs\\python\\python37\\lib\\xml\\sax\\__init__.py',
   'PYMODULE'),
  ('xml.sax.handler',
   'c:\\users\\tabuchi '
   'miona\\appdata\\local\\programs\\python\\python37\\lib\\xml\\sax\\handler.py',
   'PYMODULE'),
  ('xml.sax._exceptions',
   'c:\\users\\tabuchi '
   'miona\\appdata\\local\\programs\\python\\python37\\lib\\xml\\sax\\_exceptions.py',
   'PYMODULE'),
  ('xml.sax.xmlreader',
   'c:\\users\\tabuchi '
   'miona\\appdata\\local\\programs\\python\\python37\\lib\\xml\\sax\\xmlreader.py',
   'PYMODULE'),
  ('pkgutil',
   'c:\\users\\tabuchi '
   'miona\\appdata\\local\\programs\\python\\python37\\lib\\pkgutil.py',
   'PYMODULE'),
  ('importlib',
   'c:\\users\\tabuchi '
   'miona\\appdata\\local\\programs\\python\\python37\\lib\\importlib\\__init__.py',
   'PYMODULE'),
  ('importlib.abc',
   'c:\\users\\tabuchi '
   'miona\\appdata\\local\\programs\\python\\python37\\lib\\importlib\\abc.py',
   'PYMODULE'),
  ('importlib.util',
   'c:\\users\\tabuchi '
   'miona\\appdata\\local\\programs\\python\\python37\\lib\\importlib\\util.py',
   'PYMODULE'),
  ('importlib.machinery',
   'c:\\users\\tabuchi '
   'miona\\appdata\\local\\programs\\python\\python37\\lib\\importlib\\machinery.py',
   'PYMODULE'),
  ('importlib._bootstrap_external',
   'c:\\users\\tabuchi '
   'miona\\appdata\\local\\programs\\python\\python37\\lib\\importlib\\_bootstrap_external.py',
   'PYMODULE'),
  ('importlib._bootstrap',
   'c:\\users\\tabuchi '
   'miona\\appdata\\local\\programs\\python\\python37\\lib\\importlib\\_bootstrap.py',
   'PYMODULE'),
  ('runpy',
   'c:\\users\\tabuchi '
   'miona\\appdata\\local\\programs\\python\\python37\\lib\\runpy.py',
   'PYMODULE'),
  ('shlex',
   'c:\\users\\tabuchi '
   'miona\\appdata\\local\\programs\\python\\python37\\lib\\shlex.py',
   'PYMODULE'),
  ('glob',
   'c:\\users\\tabuchi '
   'miona\\appdata\\local\\programs\\python\\python37\\lib\\glob.py',
   'PYMODULE'),
  ('code',
   'c:\\users\\tabuchi '
   'miona\\appdata\\local\\programs\\python\\python37\\lib\\code.py',
   'PYMODULE'),
  ('codeop',
   'c:\\users\\tabuchi '
   'miona\\appdata\\local\\programs\\python\\python37\\lib\\codeop.py',
   'PYMODULE'),
  ('dis',
   'c:\\users\\tabuchi '
   'miona\\appdata\\local\\programs\\python\\python37\\lib\\dis.py',
   'PYMODULE'),
  ('opcode',
   'c:\\users\\tabuchi '
   'miona\\appdata\\local\\programs\\python\\python37\\lib\\opcode.py',
   'PYMODULE'),
  ('bdb',
   'c:\\users\\tabuchi '
   'miona\\appdata\\local\\programs\\python\\python37\\lib\\bdb.py',
   'PYMODULE'),
  ('cmd',
   'c:\\users\\tabuchi '
   'miona\\appdata\\local\\programs\\python\\python37\\lib\\cmd.py',
   'PYMODULE'),
  ('inspect',
   'c:\\users\\tabuchi '
   'miona\\appdata\\local\\programs\\python\\python37\\lib\\inspect.py',
   'PYMODULE'),
  ('ast',
   'c:\\users\\tabuchi '
   'miona\\appdata\\local\\programs\\python\\python37\\lib\\ast.py',
   'PYMODULE'),
  ('difflib',
   'c:\\users\\tabuchi '
   'miona\\appdata\\local\\programs\\python\\python37\\lib\\difflib.py',
   'PYMODULE'),
  ('__future__',
   'c:\\users\\tabuchi '
   'miona\\appdata\\local\\programs\\python\\python37\\lib\\__future__.py',
   'PYMODULE'),
  ('_compat_pickle',
   'c:\\users\\tabuchi '
   'miona\\appdata\\local\\programs\\python\\python37\\lib\\_compat_pickle.py',
   'PYMODULE'),
  ('struct',
   'c:\\users\\tabuchi '
   'miona\\appdata\\local\\programs\\python\\python37\\lib\\struct.py',
   'PYMODULE'),
  ('fnmatch',
   'c:\\users\\tabuchi '
   'miona\\appdata\\local\\programs\\python\\python37\\lib\\fnmatch.py',
   'PYMODULE'),
  ('typing',
   'c:\\users\\tabuchi '
   'miona\\appdata\\local\\programs\\python\\python37\\lib\\typing.py',
   'PYMODULE'),
  ('_py_abc',
   'c:\\users\\tabuchi '
   'miona\\appdata\\local\\programs\\python\\python37\\lib\\_py_abc.py',
   'PYMODULE'),
  ('stringprep',
   'c:\\users\\tabuchi '
   'miona\\appdata\\local\\programs\\python\\python37\\lib\\stringprep.py',
   'PYMODULE'),
  ('tarminal',
   'D:\\ProgWorkSpace\\tobiieyetracking\\videoEncoder\\tarminal.py',
   'PYMODULE'),
  ('gzip',
   'c:\\users\\tabuchi '
   'miona\\appdata\\local\\programs\\python\\python37\\lib\\gzip.py',
   'PYMODULE'),
  ('json',
   'c:\\users\\tabuchi '
   'miona\\appdata\\local\\programs\\python\\python37\\lib\\json\\__init__.py',
   'PYMODULE'),
  ('json.encoder',
   'c:\\users\\tabuchi '
   'miona\\appdata\\local\\programs\\python\\python37\\lib\\json\\encoder.py',
   'PYMODULE'),
  ('json.decoder',
   'c:\\users\\tabuchi '
   'miona\\appdata\\local\\programs\\python\\python37\\lib\\json\\decoder.py',
   'PYMODULE'),
  ('json.scanner',
   'c:\\users\\tabuchi '
   'miona\\appdata\\local\\programs\\python\\python37\\lib\\json\\scanner.py',
   'PYMODULE'),
  ('numpy',
   'c:\\users\\tabuchi '
   'miona\\appdata\\local\\programs\\python\\python37\\lib\\site-packages\\numpy\\__init__.py',
   'PYMODULE'),
  ('numpy.core._dtype_ctypes',
   'c:\\users\\tabuchi '
   'miona\\appdata\\local\\programs\\python\\python37\\lib\\site-packages\\numpy\\core\\_dtype_ctypes.py',
   'PYMODULE'),
  ('ctypes',
   'c:\\users\\tabuchi '
   'miona\\appdata\\local\\programs\\python\\python37\\lib\\ctypes\\__init__.py',
   'PYMODULE'),
  ('ctypes._endian',
   'c:\\users\\tabuchi '
   'miona\\appdata\\local\\programs\\python\\python37\\lib\\ctypes\\_endian.py',
   'PYMODULE'),
  ('numpy._pytesttester',
   'c:\\users\\tabuchi '
   'miona\\appdata\\local\\programs\\python\\python37\\lib\\site-packages\\numpy\\_pytesttester.py',
   'PYMODULE'),
  ('numpy.testing',
   'c:\\users\\tabuchi '
   'miona\\appdata\\local\\programs\\python\\python37\\lib\\site-packages\\numpy\\testing\\__init__.py',
   'PYMODULE'),
  ('numpy.testing._private.nosetester',
   'c:\\users\\tabuchi '
   'miona\\appdata\\local\\programs\\python\\python37\\lib\\site-packages\\numpy\\testing\\_private\\nosetester.py',
   'PYMODULE'),
  ('numpy.testing._private.noseclasses',
   'c:\\users\\tabuchi '
   'miona\\appdata\\local\\programs\\python\\python37\\lib\\site-packages\\numpy\\testing\\_private\\noseclasses.py',
   'PYMODULE'),
  ('numpy.testing._private.decorators',
   'c:\\users\\tabuchi '
   'miona\\appdata\\local\\programs\\python\\python37\\lib\\site-packages\\numpy\\testing\\_private\\decorators.py',
   'PYMODULE'),
  ('numpy.testing._private.parameterized',
   'c:\\users\\tabuchi '
   'miona\\appdata\\local\\programs\\python\\python37\\lib\\site-packages\\numpy\\testing\\_private\\parameterized.py',
   'PYMODULE'),
  ('numpy.testing._private',
   'c:\\users\\tabuchi '
   'miona\\appdata\\local\\programs\\python\\python37\\lib\\site-packages\\numpy\\testing\\_private\\__init__.py',
   'PYMODULE'),
  ('numpy.testing._private.utils',
   'c:\\users\\tabuchi '
   'miona\\appdata\\local\\programs\\python\\python37\\lib\\site-packages\\numpy\\testing\\_private\\utils.py',
   'PYMODULE'),
  ('numpy.core.fromnumeric',
   'c:\\users\\tabuchi '
   'miona\\appdata\\local\\programs\\python\\python37\\lib\\site-packages\\numpy\\core\\fromnumeric.py',
   'PYMODULE'),
  ('numpy.core._methods',
   'c:\\users\\tabuchi '
   'miona\\appdata\\local\\programs\\python\\python37\\lib\\site-packages\\numpy\\core\\_methods.py',
   'PYMODULE'),
  ('numpy.core._exceptions',
   'c:\\users\\tabuchi '
   'miona\\appdata\\local\\programs\\python\\python37\\lib\\site-packages\\numpy\\core\\_exceptions.py',
   'PYMODULE'),
  ('numpy.core._asarray',
   'c:\\users\\tabuchi '
   'miona\\appdata\\local\\programs\\python\\python37\\lib\\site-packages\\numpy\\core\\_asarray.py',
   'PYMODULE'),
  ('numpy.core.umath',
   'c:\\users\\tabuchi '
   'miona\\appdata\\local\\programs\\python\\python37\\lib\\site-packages\\numpy\\core\\umath.py',
   'PYMODULE'),
  ('numpy.core.overrides',
   'c:\\users\\tabuchi '
   'miona\\appdata\\local\\programs\\python\\python37\\lib\\site-packages\\numpy\\core\\overrides.py',
   'PYMODULE'),
  ('numpy.compat._inspect',
   'c:\\users\\tabuchi '
   'miona\\appdata\\local\\programs\\python\\python37\\lib\\site-packages\\numpy\\compat\\_inspect.py',
   'PYMODULE'),
  ('numpy.core.multiarray',
   'c:\\users\\tabuchi '
   'miona\\appdata\\local\\programs\\python\\python37\\lib\\site-packages\\numpy\\core\\multiarray.py',
   'PYMODULE'),
  ('numpy.core.numerictypes',
   'c:\\users\\tabuchi '
   'miona\\appdata\\local\\programs\\python\\python37\\lib\\site-packages\\numpy\\core\\numerictypes.py',
   'PYMODULE'),
  ('numpy.core._dtype',
   'c:\\users\\tabuchi '
   'miona\\appdata\\local\\programs\\python\\python37\\lib\\site-packages\\numpy\\core\\_dtype.py',
   'PYMODULE'),
  ('numpy.core._type_aliases',
   'c:\\users\\tabuchi '
   'miona\\appdata\\local\\programs\\python\\python37\\lib\\site-packages\\numpy\\core\\_type_aliases.py',
   'PYMODULE'),
  ('numpy.core._string_helpers',
   'c:\\users\\tabuchi '
   'miona\\appdata\\local\\programs\\python\\python37\\lib\\site-packages\\numpy\\core\\_string_helpers.py',
   'PYMODULE'),
  ('numbers',
   'c:\\users\\tabuchi '
   'miona\\appdata\\local\\programs\\python\\python37\\lib\\numbers.py',
   'PYMODULE'),
  ('numpy.matrixlib',
   'c:\\users\\tabuchi '
   'miona\\appdata\\local\\programs\\python\\python37\\lib\\site-packages\\numpy\\matrixlib\\__init__.py',
   'PYMODULE'),
  ('numpy.matrixlib.defmatrix',
   'c:\\users\\tabuchi '
   'miona\\appdata\\local\\programs\\python\\python37\\lib\\site-packages\\numpy\\matrixlib\\defmatrix.py',
   'PYMODULE'),
  ('numpy.dual',
   'c:\\users\\tabuchi '
   'miona\\appdata\\local\\programs\\python\\python37\\lib\\site-packages\\numpy\\dual.py',
   'PYMODULE'),
  ('numpy.core.numeric',
   'c:\\users\\tabuchi '
   'miona\\appdata\\local\\programs\\python\\python37\\lib\\site-packages\\numpy\\core\\numeric.py',
   'PYMODULE'),
  ('numpy.core.arrayprint',
   'c:\\users\\tabuchi '
   'miona\\appdata\\local\\programs\\python\\python37\\lib\\site-packages\\numpy\\core\\arrayprint.py',
   'PYMODULE'),
  ('_dummy_thread',
   'c:\\users\\tabuchi '
   'miona\\appdata\\local\\programs\\python\\python37\\lib\\_dummy_thread.py',
   'PYMODULE'),
  ('numpy.core._ufunc_config',
   'c:\\users\\tabuchi '
   'miona\\appdata\\local\\programs\\python\\python37\\lib\\site-packages\\numpy\\core\\_ufunc_config.py',
   'PYMODULE'),
  ('numpy.core.shape_base',
   'c:\\users\\tabuchi '
   'miona\\appdata\\local\\programs\\python\\python37\\lib\\site-packages\\numpy\\core\\shape_base.py',
   'PYMODULE'),
  ('numpy.ma',
   'c:\\users\\tabuchi '
   'miona\\appdata\\local\\programs\\python\\python37\\lib\\site-packages\\numpy\\ma\\__init__.py',
   'PYMODULE'),
  ('numpy.ma.extras',
   'c:\\users\\tabuchi '
   'miona\\appdata\\local\\programs\\python\\python37\\lib\\site-packages\\numpy\\ma\\extras.py',
   'PYMODULE'),
  ('numpy.lib.index_tricks',
   'c:\\users\\tabuchi '
   'miona\\appdata\\local\\programs\\python\\python37\\lib\\site-packages\\numpy\\lib\\index_tricks.py',
   'PYMODULE'),
  ('numpy.lib.stride_tricks',
   'c:\\users\\tabuchi '
   'miona\\appdata\\local\\programs\\python\\python37\\lib\\site-packages\\numpy\\lib\\stride_tricks.py',
   'PYMODULE'),
  ('numpy.lib.function_base',
   'c:\\users\\tabuchi '
   'miona\\appdata\\local\\programs\\python\\python37\\lib\\site-packages\\numpy\\lib\\function_base.py',
   'PYMODULE'),
  ('numpy.lib.histograms',
   'c:\\users\\tabuchi '
   'miona\\appdata\\local\\programs\\python\\python37\\lib\\site-packages\\numpy\\lib\\histograms.py',
   'PYMODULE'),
  ('numpy.compat.py3k',
   'c:\\users\\tabuchi '
   'miona\\appdata\\local\\programs\\python\\python37\\lib\\site-packages\\numpy\\compat\\py3k.py',
   'PYMODULE'),
  ('imp',
   'c:\\users\\tabuchi '
   'miona\\appdata\\local\\programs\\python\\python37\\lib\\imp.py',
   'PYMODULE'),
  ('pathlib',
   'c:\\users\\tabuchi '
   'miona\\appdata\\local\\programs\\python\\python37\\lib\\pathlib.py',
   'PYMODULE'),
  ('numpy.lib.twodim_base',
   'c:\\users\\tabuchi '
   'miona\\appdata\\local\\programs\\python\\python37\\lib\\site-packages\\numpy\\lib\\twodim_base.py',
   'PYMODULE'),
  ('numpy.core.function_base',
   'c:\\users\\tabuchi '
   'miona\\appdata\\local\\programs\\python\\python37\\lib\\site-packages\\numpy\\core\\function_base.py',
   'PYMODULE'),
  ('numpy.ma.core',
   'c:\\users\\tabuchi '
   'miona\\appdata\\local\\programs\\python\\python37\\lib\\site-packages\\numpy\\ma\\core.py',
   'PYMODULE'),
  ('numpy.core._internal',
   'c:\\users\\tabuchi '
   'miona\\appdata\\local\\programs\\python\\python37\\lib\\site-packages\\numpy\\core\\_internal.py',
   'PYMODULE'),
  ('numpy.ctypeslib',
   'c:\\users\\tabuchi '
   'miona\\appdata\\local\\programs\\python\\python37\\lib\\site-packages\\numpy\\ctypeslib.py',
   'PYMODULE'),
  ('numpy.random',
   'c:\\users\\tabuchi '
   'miona\\appdata\\local\\programs\\python\\python37\\lib\\site-packages\\numpy\\random\\__init__.py',
   'PYMODULE'),
  ('numpy.random._pickle',
   'c:\\users\\tabuchi '
   'miona\\appdata\\local\\programs\\python\\python37\\lib\\site-packages\\numpy\\random\\_pickle.py',
   'PYMODULE'),
  ('numpy.polynomial',
   'c:\\users\\tabuchi '
   'miona\\appdata\\local\\programs\\python\\python37\\lib\\site-packages\\numpy\\polynomial\\__init__.py',
   'PYMODULE'),
  ('numpy.polynomial.laguerre',
   'c:\\users\\tabuchi '
   'miona\\appdata\\local\\programs\\python\\python37\\lib\\site-packages\\numpy\\polynomial\\laguerre.py',
   'PYMODULE'),
  ('numpy.polynomial._polybase',
   'c:\\users\\tabuchi '
   'miona\\appdata\\local\\programs\\python\\python37\\lib\\site-packages\\numpy\\polynomial\\_polybase.py',
   'PYMODULE'),
  ('numpy.polynomial.hermite_e',
   'c:\\users\\tabuchi '
   'miona\\appdata\\local\\programs\\python\\python37\\lib\\site-packages\\numpy\\polynomial\\hermite_e.py',
   'PYMODULE'),
  ('numpy.polynomial.hermite',
   'c:\\users\\tabuchi '
   'miona\\appdata\\local\\programs\\python\\python37\\lib\\site-packages\\numpy\\polynomial\\hermite.py',
   'PYMODULE'),
  ('numpy.polynomial.legendre',
   'c:\\users\\tabuchi '
   'miona\\appdata\\local\\programs\\python\\python37\\lib\\site-packages\\numpy\\polynomial\\legendre.py',
   'PYMODULE'),
  ('numpy.polynomial.chebyshev',
   'c:\\users\\tabuchi '
   'miona\\appdata\\local\\programs\\python\\python37\\lib\\site-packages\\numpy\\polynomial\\chebyshev.py',
   'PYMODULE'),
  ('numpy.polynomial.polynomial',
   'c:\\users\\tabuchi '
   'miona\\appdata\\local\\programs\\python\\python37\\lib\\site-packages\\numpy\\polynomial\\polynomial.py',
   'PYMODULE'),
  ('numpy.polynomial.polyutils',
   'c:\\users\\tabuchi '
   'miona\\appdata\\local\\programs\\python\\python37\\lib\\site-packages\\numpy\\polynomial\\polyutils.py',
   'PYMODULE'),
  ('numpy.fft',
   'c:\\users\\tabuchi '
   'miona\\appdata\\local\\programs\\python\\python37\\lib\\site-packages\\numpy\\fft\\__init__.py',
   'PYMODULE'),
  ('numpy.fft.helper',
   'c:\\users\\tabuchi '
   'miona\\appdata\\local\\programs\\python\\python37\\lib\\site-packages\\numpy\\fft\\helper.py',
   'PYMODULE'),
  ('numpy.fft._pocketfft',
   'c:\\users\\tabuchi '
   'miona\\appdata\\local\\programs\\python\\python37\\lib\\site-packages\\numpy\\fft\\_pocketfft.py',
   'PYMODULE'),
  ('numpy.linalg',
   'c:\\users\\tabuchi '
   'miona\\appdata\\local\\programs\\python\\python37\\lib\\site-packages\\numpy\\linalg\\__init__.py',
   'PYMODULE'),
  ('numpy.linalg.linalg',
   'c:\\users\\tabuchi '
   'miona\\appdata\\local\\programs\\python\\python37\\lib\\site-packages\\numpy\\linalg\\linalg.py',
   'PYMODULE'),
  ('numpy.lib',
   'c:\\users\\tabuchi '
   'miona\\appdata\\local\\programs\\python\\python37\\lib\\site-packages\\numpy\\lib\\__init__.py',
   'PYMODULE'),
  ('numpy.lib._version',
   'c:\\users\\tabuchi '
   'miona\\appdata\\local\\programs\\python\\python37\\lib\\site-packages\\numpy\\lib\\_version.py',
   'PYMODULE'),
  ('numpy.lib.arraypad',
   'c:\\users\\tabuchi '
   'miona\\appdata\\local\\programs\\python\\python37\\lib\\site-packages\\numpy\\lib\\arraypad.py',
   'PYMODULE'),
  ('numpy.lib.arrayterator',
   'c:\\users\\tabuchi '
   'miona\\appdata\\local\\programs\\python\\python37\\lib\\site-packages\\numpy\\lib\\arrayterator.py',
   'PYMODULE'),
  ('numpy.lib.financial',
   'c:\\users\\tabuchi '
   'miona\\appdata\\local\\programs\\python\\python37\\lib\\site-packages\\numpy\\lib\\financial.py',
   'PYMODULE'),
  ('decimal',
   'c:\\users\\tabuchi '
   'miona\\appdata\\local\\programs\\python\\python37\\lib\\decimal.py',
   'PYMODULE'),
  ('_pydecimal',
   'c:\\users\\tabuchi '
   'miona\\appdata\\local\\programs\\python\\python37\\lib\\_pydecimal.py',
   'PYMODULE'),
  ('contextvars',
   'c:\\users\\tabuchi '
   'miona\\appdata\\local\\programs\\python\\python37\\lib\\contextvars.py',
   'PYMODULE'),
  ('numpy.lib.npyio',
   'c:\\users\\tabuchi '
   'miona\\appdata\\local\\programs\\python\\python37\\lib\\site-packages\\numpy\\lib\\npyio.py',
   'PYMODULE'),
  ('numpy.ma.mrecords',
   'c:\\users\\tabuchi '
   'miona\\appdata\\local\\programs\\python\\python37\\lib\\site-packages\\numpy\\ma\\mrecords.py',
   'PYMODULE'),
  ('numpy.core.records',
   'c:\\users\\tabuchi '
   'miona\\appdata\\local\\programs\\python\\python37\\lib\\site-packages\\numpy\\core\\records.py',
   'PYMODULE'),
  ('numpy.lib._iotools',
   'c:\\users\\tabuchi '
   'miona\\appdata\\local\\programs\\python\\python37\\lib\\site-packages\\numpy\\lib\\_iotools.py',
   'PYMODULE'),
  ('numpy.lib._datasource',
   'c:\\users\\tabuchi '
   'miona\\appdata\\local\\programs\\python\\python37\\lib\\site-packages\\numpy\\lib\\_datasource.py',
   'PYMODULE'),
  ('numpy.lib.format',
   'c:\\users\\tabuchi '
   'miona\\appdata\\local\\programs\\python\\python37\\lib\\site-packages\\numpy\\lib\\format.py',
   'PYMODULE'),
  ('numpy.lib.arraysetops',
   'c:\\users\\tabuchi '
   'miona\\appdata\\local\\programs\\python\\python37\\lib\\site-packages\\numpy\\lib\\arraysetops.py',
   'PYMODULE'),
  ('numpy.lib.utils',
   'c:\\users\\tabuchi '
   'miona\\appdata\\local\\programs\\python\\python37\\lib\\site-packages\\numpy\\lib\\utils.py',
   'PYMODULE'),
  ('numpy.lib.polynomial',
   'c:\\users\\tabuchi '
   'miona\\appdata\\local\\programs\\python\\python37\\lib\\site-packages\\numpy\\lib\\polynomial.py',
   'PYMODULE'),
  ('numpy.lib.ufunclike',
   'c:\\users\\tabuchi '
   'miona\\appdata\\local\\programs\\python\\python37\\lib\\site-packages\\numpy\\lib\\ufunclike.py',
   'PYMODULE'),
  ('numpy.lib.shape_base',
   'c:\\users\\tabuchi '
   'miona\\appdata\\local\\programs\\python\\python37\\lib\\site-packages\\numpy\\lib\\shape_base.py',
   'PYMODULE'),
  ('numpy.lib.nanfunctions',
   'c:\\users\\tabuchi '
   'miona\\appdata\\local\\programs\\python\\python37\\lib\\site-packages\\numpy\\lib\\nanfunctions.py',
   'PYMODULE'),
  ('numpy.lib.type_check',
   'c:\\users\\tabuchi '
   'miona\\appdata\\local\\programs\\python\\python37\\lib\\site-packages\\numpy\\lib\\type_check.py',
   'PYMODULE'),
  ('numpy.core.getlimits',
   'c:\\users\\tabuchi '
   'miona\\appdata\\local\\programs\\python\\python37\\lib\\site-packages\\numpy\\core\\getlimits.py',
   'PYMODULE'),
  ('numpy.core.machar',
   'c:\\users\\tabuchi '
   'miona\\appdata\\local\\programs\\python\\python37\\lib\\site-packages\\numpy\\core\\machar.py',
   'PYMODULE'),
  ('numpy.lib.scimath',
   'c:\\users\\tabuchi '
   'miona\\appdata\\local\\programs\\python\\python37\\lib\\site-packages\\numpy\\lib\\scimath.py',
   'PYMODULE'),
  ('numpy.lib.mixins',
   'c:\\users\\tabuchi '
   'miona\\appdata\\local\\programs\\python\\python37\\lib\\site-packages\\numpy\\lib\\mixins.py',
   'PYMODULE'),
  ('numpy.compat',
   'c:\\users\\tabuchi '
   'miona\\appdata\\local\\programs\\python\\python37\\lib\\site-packages\\numpy\\compat\\__init__.py',
   'PYMODULE'),
  ('numpy.core',
   'c:\\users\\tabuchi '
   'miona\\appdata\\local\\programs\\python\\python37\\lib\\site-packages\\numpy\\core\\__init__.py',
   'PYMODULE'),
  ('numpy.core._add_newdocs',
   'c:\\users\\tabuchi '
   'miona\\appdata\\local\\programs\\python\\python37\\lib\\site-packages\\numpy\\core\\_add_newdocs.py',
   'PYMODULE'),
  ('numpy.core.einsumfunc',
   'c:\\users\\tabuchi '
   'miona\\appdata\\local\\programs\\python\\python37\\lib\\site-packages\\numpy\\core\\einsumfunc.py',
   'PYMODULE'),
  ('numpy.core.memmap',
   'c:\\users\\tabuchi '
   'miona\\appdata\\local\\programs\\python\\python37\\lib\\site-packages\\numpy\\core\\memmap.py',
   'PYMODULE'),
  ('numpy.core.defchararray',
   'c:\\users\\tabuchi '
   'miona\\appdata\\local\\programs\\python\\python37\\lib\\site-packages\\numpy\\core\\defchararray.py',
   'PYMODULE'),
  ('numpy._distributor_init',
   'c:\\users\\tabuchi '
   'miona\\appdata\\local\\programs\\python\\python37\\lib\\site-packages\\numpy\\_distributor_init.py',
   'PYMODULE'),
  ('numpy.version',
   'c:\\users\\tabuchi '
   'miona\\appdata\\local\\programs\\python\\python37\\lib\\site-packages\\numpy\\version.py',
   'PYMODULE'),
  ('numpy.__config__',
   'c:\\users\\tabuchi '
   'miona\\appdata\\local\\programs\\python\\python37\\lib\\site-packages\\numpy\\__config__.py',
   'PYMODULE'),
  ('numpy._globals',
   'c:\\users\\tabuchi '
   'miona\\appdata\\local\\programs\\python\\python37\\lib\\site-packages\\numpy\\_globals.py',
   'PYMODULE'),
  ('cv2',
   'c:\\users\\tabuchi '
   'miona\\appdata\\local\\programs\\python\\python37\\lib\\site-packages\\cv2\\__init__.py',
   'PYMODULE'),
  ('cv2.data',
   'c:\\users\\tabuchi '
   'miona\\appdata\\local\\programs\\python\\python37\\lib\\site-packages\\cv2\\data\\__init__.py',
   'PYMODULE')],
 [('api-ms-win-crt-locale-l1-1-0.dll',
   'C:\\Program Files\\java\\jdk-13\\bin\\api-ms-win-crt-locale-l1-1-0.dll',
   'BINARY'),
  ('api-ms-win-crt-heap-l1-1-0.dll',
   'C:\\Program Files\\java\\jdk-13\\bin\\api-ms-win-crt-heap-l1-1-0.dll',
   'BINARY'),
  ('python37.dll',
   'c:\\users\\tabuchi '
   'miona\\appdata\\local\\programs\\python\\python37\\python37.dll',
   'BINARY'),
  ('VCRUNTIME140.dll',
   'c:\\users\\tabuchi '
   'miona\\appdata\\local\\programs\\python\\python37\\VCRUNTIME140.dll',
   'BINARY'),
  ('api-ms-win-crt-stdio-l1-1-0.dll',
   'C:\\Program Files\\java\\jdk-13\\bin\\api-ms-win-crt-stdio-l1-1-0.dll',
   'BINARY'),
  ('api-ms-win-crt-runtime-l1-1-0.dll',
   'C:\\Program Files\\java\\jdk-13\\bin\\api-ms-win-crt-runtime-l1-1-0.dll',
   'BINARY'),
  ('api-ms-win-crt-math-l1-1-0.dll',
   'C:\\Program Files\\java\\jdk-13\\bin\\api-ms-win-crt-math-l1-1-0.dll',
   'BINARY'),
  ('ucrtbase.dll',
   'C:\\Program Files\\java\\jdk-13\\bin\\ucrtbase.dll',
   'BINARY'),
  ('api-ms-win-crt-string-l1-1-0.dll',
   'C:\\Program Files\\java\\jdk-13\\bin\\api-ms-win-crt-string-l1-1-0.dll',
   'BINARY'),
  ('api-ms-win-crt-convert-l1-1-0.dll',
   'C:\\Program Files\\java\\jdk-13\\bin\\api-ms-win-crt-convert-l1-1-0.dll',
   'BINARY'),
  ('api-ms-win-crt-filesystem-l1-1-0.dll',
   'C:\\Program Files\\java\\jdk-13\\bin\\api-ms-win-crt-filesystem-l1-1-0.dll',
   'BINARY'),
  ('api-ms-win-crt-time-l1-1-0.dll',
   'C:\\Program Files\\java\\jdk-13\\bin\\api-ms-win-crt-time-l1-1-0.dll',
   'BINARY'),
  ('api-ms-win-crt-conio-l1-1-0.dll',
   'C:\\Program Files\\java\\jdk-13\\bin\\api-ms-win-crt-conio-l1-1-0.dll',
   'BINARY'),
  ('api-ms-win-crt-environment-l1-1-0.dll',
   'C:\\Program '
   'Files\\java\\jdk-13\\bin\\api-ms-win-crt-environment-l1-1-0.dll',
   'BINARY'),
  ('api-ms-win-crt-process-l1-1-0.dll',
   'C:\\Program Files\\java\\jdk-13\\bin\\api-ms-win-crt-process-l1-1-0.dll',
   'BINARY'),
  ('api-ms-win-core-synch-l1-1-0.dll',
   'C:\\Program Files\\java\\jdk-13\\bin\\api-ms-win-core-synch-l1-1-0.dll',
   'BINARY'),
  ('api-ms-win-core-util-l1-1-0.dll',
   'C:\\Program Files\\java\\jdk-13\\bin\\api-ms-win-core-util-l1-1-0.dll',
   'BINARY'),
  ('api-ms-win-core-heap-l1-1-0.dll',
   'C:\\Program Files\\java\\jdk-13\\bin\\api-ms-win-core-heap-l1-1-0.dll',
   'BINARY'),
  ('api-ms-win-core-libraryloader-l1-1-0.dll',
   'C:\\Program '
   'Files\\java\\jdk-13\\bin\\api-ms-win-core-libraryloader-l1-1-0.dll',
   'BINARY'),
  ('api-ms-win-core-console-l1-1-0.dll',
   'C:\\Program Files\\java\\jdk-13\\bin\\api-ms-win-core-console-l1-1-0.dll',
   'BINARY'),
  ('api-ms-win-core-debug-l1-1-0.dll',
   'C:\\Program Files\\java\\jdk-13\\bin\\api-ms-win-core-debug-l1-1-0.dll',
   'BINARY'),
  ('api-ms-win-core-rtlsupport-l1-1-0.dll',
   'C:\\Program '
   'Files\\java\\jdk-13\\bin\\api-ms-win-core-rtlsupport-l1-1-0.dll',
   'BINARY'),
  ('api-ms-win-core-errorhandling-l1-1-0.dll',
   'C:\\Program '
   'Files\\java\\jdk-13\\bin\\api-ms-win-core-errorhandling-l1-1-0.dll',
   'BINARY'),
  ('api-ms-win-core-interlocked-l1-1-0.dll',
   'C:\\Program '
   'Files\\java\\jdk-13\\bin\\api-ms-win-core-interlocked-l1-1-0.dll',
   'BINARY'),
  ('api-ms-win-core-handle-l1-1-0.dll',
   'C:\\Program Files\\java\\jdk-13\\bin\\api-ms-win-core-handle-l1-1-0.dll',
   'BINARY'),
  ('api-ms-win-core-synch-l1-2-0.dll',
   'C:\\Program Files\\java\\jdk-13\\bin\\api-ms-win-core-synch-l1-2-0.dll',
   'BINARY'),
  ('api-ms-win-core-namedpipe-l1-1-0.dll',
   'C:\\Program Files\\java\\jdk-13\\bin\\api-ms-win-core-namedpipe-l1-1-0.dll',
   'BINARY'),
  ('api-ms-win-core-timezone-l1-1-0.dll',
   'C:\\Program Files\\java\\jdk-13\\bin\\api-ms-win-core-timezone-l1-1-0.dll',
   'BINARY'),
  ('api-ms-win-core-localization-l1-2-0.dll',
   'C:\\Program '
   'Files\\java\\jdk-13\\bin\\api-ms-win-core-localization-l1-2-0.dll',
   'BINARY'),
  ('api-ms-win-core-file-l2-1-0.dll',
   'C:\\Program Files\\java\\jdk-13\\bin\\api-ms-win-core-file-l2-1-0.dll',
   'BINARY'),
  ('api-ms-win-core-memory-l1-1-0.dll',
   'C:\\Program Files\\java\\jdk-13\\bin\\api-ms-win-core-memory-l1-1-0.dll',
   'BINARY'),
  ('api-ms-win-core-processthreads-l1-1-1.dll',
   'C:\\Program '
   'Files\\java\\jdk-13\\bin\\api-ms-win-core-processthreads-l1-1-1.dll',
   'BINARY'),
  ('api-ms-win-core-string-l1-1-0.dll',
   'C:\\Program Files\\java\\jdk-13\\bin\\api-ms-win-core-string-l1-1-0.dll',
   'BINARY'),
  ('api-ms-win-core-processthreads-l1-1-0.dll',
   'C:\\Program '
   'Files\\java\\jdk-13\\bin\\api-ms-win-core-processthreads-l1-1-0.dll',
   'BINARY'),
  ('api-ms-win-core-file-l1-2-0.dll',
   'C:\\Program Files\\java\\jdk-13\\bin\\api-ms-win-core-file-l1-2-0.dll',
   'BINARY'),
  ('api-ms-win-core-processenvironment-l1-1-0.dll',
   'C:\\Program '
   'Files\\java\\jdk-13\\bin\\api-ms-win-core-processenvironment-l1-1-0.dll',
   'BINARY'),
  ('api-ms-win-core-datetime-l1-1-0.dll',
   'C:\\Program Files\\java\\jdk-13\\bin\\api-ms-win-core-datetime-l1-1-0.dll',
   'BINARY'),
  ('api-ms-win-core-sysinfo-l1-1-0.dll',
   'C:\\Program Files\\java\\jdk-13\\bin\\api-ms-win-core-sysinfo-l1-1-0.dll',
   'BINARY'),
  ('api-ms-win-core-profile-l1-1-0.dll',
   'C:\\Program Files\\java\\jdk-13\\bin\\api-ms-win-core-profile-l1-1-0.dll',
   'BINARY'),
  ('api-ms-win-core-file-l1-1-0.dll',
   'C:\\Program Files\\java\\jdk-13\\bin\\api-ms-win-core-file-l1-1-0.dll',
   'BINARY'),
  ('libopenblas.PYQHXLVVQ7VESDPUVUADXEVJOBGHJPAY.gfortran-win_amd64.dll',
   'c:\\users\\tabuchi '
   'miona\\appdata\\local\\programs\\python\\python37\\lib\\site-packages\\numpy\\.libs\\libopenblas.PYQHXLVVQ7VESDPUVUADXEVJOBGHJPAY.gfortran-win_amd64.dll',
   'BINARY'),
  ('cv2\\opencv_videoio_ffmpeg420_64.dll',
   'c:\\users\\tabuchi '
   'miona\\appdata\\local\\programs\\python\\python37\\lib\\site-packages\\cv2\\opencv_videoio_ffmpeg420_64.dll',
   'BINARY'),
  ('select',
   'c:\\users\\tabuchi '
   'miona\\appdata\\local\\programs\\python\\python37\\DLLs\\select.pyd',
   'EXTENSION'),
  ('_socket',
   'c:\\users\\tabuchi '
   'miona\\appdata\\local\\programs\\python\\python37\\DLLs\\_socket.pyd',
   'EXTENSION'),
  ('_lzma',
   'c:\\users\\tabuchi '
   'miona\\appdata\\local\\programs\\python\\python37\\DLLs\\_lzma.pyd',
   'EXTENSION'),
  ('_bz2',
   'c:\\users\\tabuchi '
   'miona\\appdata\\local\\programs\\python\\python37\\DLLs\\_bz2.pyd',
   'EXTENSION'),
  ('_hashlib',
   'c:\\users\\tabuchi '
   'miona\\appdata\\local\\programs\\python\\python37\\DLLs\\_hashlib.pyd',
   'EXTENSION'),
  ('_ssl',
   'c:\\users\\tabuchi '
   'miona\\appdata\\local\\programs\\python\\python37\\DLLs\\_ssl.pyd',
   'EXTENSION'),
  ('unicodedata',
   'c:\\users\\tabuchi '
   'miona\\appdata\\local\\programs\\python\\python37\\DLLs\\unicodedata.pyd',
   'EXTENSION'),
  ('pyexpat',
   'c:\\users\\tabuchi '
   'miona\\appdata\\local\\programs\\python\\python37\\DLLs\\pyexpat.pyd',
   'EXTENSION'),
  ('_ctypes',
   'c:\\users\\tabuchi '
   'miona\\appdata\\local\\programs\\python\\python37\\DLLs\\_ctypes.pyd',
   'EXTENSION'),
  ('numpy.core._multiarray_tests',
   'c:\\users\\tabuchi '
   'miona\\appdata\\local\\programs\\python\\python37\\lib\\site-packages\\numpy\\core\\_multiarray_tests.cp37-win_amd64.pyd',
   'EXTENSION'),
  ('numpy.core._multiarray_umath',
   'c:\\users\\tabuchi '
   'miona\\appdata\\local\\programs\\python\\python37\\lib\\site-packages\\numpy\\core\\_multiarray_umath.cp37-win_amd64.pyd',
   'EXTENSION'),
  ('win32pdh',
   'c:\\users\\tabuchi '
   'miona\\appdata\\local\\programs\\python\\python37\\lib\\site-packages\\win32\\win32pdh.pyd',
   'EXTENSION'),
  ('numpy.random.mtrand',
   'c:\\users\\tabuchi '
   'miona\\appdata\\local\\programs\\python\\python37\\lib\\site-packages\\numpy\\random\\mtrand.cp37-win_amd64.pyd',
   'EXTENSION'),
  ('numpy.random._sfc64',
   'c:\\users\\tabuchi '
   'miona\\appdata\\local\\programs\\python\\python37\\lib\\site-packages\\numpy\\random\\_sfc64.cp37-win_amd64.pyd',
   'EXTENSION'),
  ('numpy.random._philox',
   'c:\\users\\tabuchi '
   'miona\\appdata\\local\\programs\\python\\python37\\lib\\site-packages\\numpy\\random\\_philox.cp37-win_amd64.pyd',
   'EXTENSION'),
  ('numpy.random._pcg64',
   'c:\\users\\tabuchi '
   'miona\\appdata\\local\\programs\\python\\python37\\lib\\site-packages\\numpy\\random\\_pcg64.cp37-win_amd64.pyd',
   'EXTENSION'),
  ('numpy.random._mt19937',
   'c:\\users\\tabuchi '
   'miona\\appdata\\local\\programs\\python\\python37\\lib\\site-packages\\numpy\\random\\_mt19937.cp37-win_amd64.pyd',
   'EXTENSION'),
  ('numpy.random._bit_generator',
   'c:\\users\\tabuchi '
   'miona\\appdata\\local\\programs\\python\\python37\\lib\\site-packages\\numpy\\random\\_bit_generator.cp37-win_amd64.pyd',
   'EXTENSION'),
  ('numpy.random._generator',
   'c:\\users\\tabuchi '
   'miona\\appdata\\local\\programs\\python\\python37\\lib\\site-packages\\numpy\\random\\_generator.cp37-win_amd64.pyd',
   'EXTENSION'),
  ('numpy.random._bounded_integers',
   'c:\\users\\tabuchi '
   'miona\\appdata\\local\\programs\\python\\python37\\lib\\site-packages\\numpy\\random\\_bounded_integers.cp37-win_amd64.pyd',
   'EXTENSION'),
  ('numpy.random._common',
   'c:\\users\\tabuchi '
   'miona\\appdata\\local\\programs\\python\\python37\\lib\\site-packages\\numpy\\random\\_common.cp37-win_amd64.pyd',
   'EXTENSION'),
  ('numpy.fft._pocketfft_internal',
   'c:\\users\\tabuchi '
   'miona\\appdata\\local\\programs\\python\\python37\\lib\\site-packages\\numpy\\fft\\_pocketfft_internal.cp37-win_amd64.pyd',
   'EXTENSION'),
  ('numpy.linalg._umath_linalg',
   'c:\\users\\tabuchi '
   'miona\\appdata\\local\\programs\\python\\python37\\lib\\site-packages\\numpy\\linalg\\_umath_linalg.cp37-win_amd64.pyd',
   'EXTENSION'),
  ('numpy.linalg.lapack_lite',
   'c:\\users\\tabuchi '
   'miona\\appdata\\local\\programs\\python\\python37\\lib\\site-packages\\numpy\\linalg\\lapack_lite.cp37-win_amd64.pyd',
   'EXTENSION'),
  ('_decimal',
   'c:\\users\\tabuchi '
   'miona\\appdata\\local\\programs\\python\\python37\\DLLs\\_decimal.pyd',
   'EXTENSION'),
  ('cv2.cv2',
   'c:\\users\\tabuchi '
   'miona\\appdata\\local\\programs\\python\\python37\\lib\\site-packages\\cv2\\cv2.cp37-win_amd64.pyd',
   'EXTENSION'),
  ('libcrypto-1_1.dll',
   'c:\\users\\tabuchi '
   'miona\\appdata\\local\\programs\\python\\python37\\DLLs\\libcrypto-1_1.dll',
   'BINARY'),
  ('libssl-1_1.dll',
   'c:\\users\\tabuchi '
   'miona\\appdata\\local\\programs\\python\\python37\\DLLs\\libssl-1_1.dll',
   'BINARY'),
  ('api-ms-win-crt-utility-l1-1-0.dll',
   'C:\\Program Files\\java\\jdk-13\\bin\\api-ms-win-crt-utility-l1-1-0.dll',
   'BINARY'),
  ('pywintypes37.dll',
   'c:\\users\\tabuchi '
   'miona\\appdata\\local\\programs\\python\\python37\\Lib\\site-packages\\pywin32_system32\\pywintypes37.dll',
   'BINARY')],
 [],
 [],
 [('base_library.zip',
   'D:\\ProgWorkSpace\\tobiieyetracking\\videoEncoder\\build\\tobiiUnpack\\base_library.zip',
   'DATA')],
 [])
