([('tobiiUnpack.exe',
   'D:\\ProgWorkSpace\\tobiieyetracking\\videoEncoder\\build\\tobiiUnpack\\tobiiUnpack.exe',
   'EXECUTABLE'),
  ('tobiiUnpack.exe.manifest',
   'D:\\ProgWorkSpace\\tobiieyetracking\\videoEncoder\\build\\tobiiUnpack\\tobiiUnpack.exe.manifest',
   'BINARY'),
  ('api-ms-win-crt-locale-l1-1-0.dll',
   'C:\\Program Files\\java\\jdk-13\\bin\\api-ms-win-crt-locale-l1-1-0.dll',
   'BINARY'),
  ('api-ms-win-crt-heap-l1-1-0.dll',
   'C:\\Program Files\\java\\jdk-13\\bin\\api-ms-win-crt-heap-l1-1-0.dll',
   'BINARY'),
  ('python37.dll',
   'c:\\users\\tabuchi '
   'miona\\appdata\\local\\programs\\python\\python37\\python37.dll',
   'BINARY'),
  ('VCRUNTIME140.dll',
   'c:\\users\\tabuchi '
   'miona\\appdata\\local\\programs\\python\\python37\\VCRUNTIME140.dll',
   'BINARY'),
  ('api-ms-win-crt-stdio-l1-1-0.dll',
   'C:\\Program Files\\java\\jdk-13\\bin\\api-ms-win-crt-stdio-l1-1-0.dll',
   'BINARY'),
  ('api-ms-win-crt-runtime-l1-1-0.dll',
   'C:\\Program Files\\java\\jdk-13\\bin\\api-ms-win-crt-runtime-l1-1-0.dll',
   'BINARY'),
  ('api-ms-win-crt-math-l1-1-0.dll',
   'C:\\Program Files\\java\\jdk-13\\bin\\api-ms-win-crt-math-l1-1-0.dll',
   'BINARY'),
  ('ucrtbase.dll',
   'C:\\Program Files\\java\\jdk-13\\bin\\ucrtbase.dll',
   'BINARY'),
  ('api-ms-win-crt-string-l1-1-0.dll',
   'C:\\Program Files\\java\\jdk-13\\bin\\api-ms-win-crt-string-l1-1-0.dll',
   'BINARY'),
  ('api-ms-win-crt-convert-l1-1-0.dll',
   'C:\\Program Files\\java\\jdk-13\\bin\\api-ms-win-crt-convert-l1-1-0.dll',
   'BINARY'),
  ('api-ms-win-crt-filesystem-l1-1-0.dll',
   'C:\\Program Files\\java\\jdk-13\\bin\\api-ms-win-crt-filesystem-l1-1-0.dll',
   'BINARY'),
  ('api-ms-win-crt-time-l1-1-0.dll',
   'C:\\Program Files\\java\\jdk-13\\bin\\api-ms-win-crt-time-l1-1-0.dll',
   'BINARY'),
  ('api-ms-win-crt-conio-l1-1-0.dll',
   'C:\\Program Files\\java\\jdk-13\\bin\\api-ms-win-crt-conio-l1-1-0.dll',
   'BINARY'),
  ('api-ms-win-crt-environment-l1-1-0.dll',
   'C:\\Program '
   'Files\\java\\jdk-13\\bin\\api-ms-win-crt-environment-l1-1-0.dll',
   'BINARY'),
  ('api-ms-win-crt-process-l1-1-0.dll',
   'C:\\Program Files\\java\\jdk-13\\bin\\api-ms-win-crt-process-l1-1-0.dll',
   'BINARY'),
  ('api-ms-win-core-synch-l1-1-0.dll',
   'C:\\Program Files\\java\\jdk-13\\bin\\api-ms-win-core-synch-l1-1-0.dll',
   'BINARY'),
  ('api-ms-win-core-util-l1-1-0.dll',
   'C:\\Program Files\\java\\jdk-13\\bin\\api-ms-win-core-util-l1-1-0.dll',
   'BINARY'),
  ('api-ms-win-core-heap-l1-1-0.dll',
   'C:\\Program Files\\java\\jdk-13\\bin\\api-ms-win-core-heap-l1-1-0.dll',
   'BINARY'),
  ('api-ms-win-core-libraryloader-l1-1-0.dll',
   'C:\\Program '
   'Files\\java\\jdk-13\\bin\\api-ms-win-core-libraryloader-l1-1-0.dll',
   'BINARY'),
  ('api-ms-win-core-console-l1-1-0.dll',
   'C:\\Program Files\\java\\jdk-13\\bin\\api-ms-win-core-console-l1-1-0.dll',
   'BINARY'),
  ('api-ms-win-core-debug-l1-1-0.dll',
   'C:\\Program Files\\java\\jdk-13\\bin\\api-ms-win-core-debug-l1-1-0.dll',
   'BINARY'),
  ('api-ms-win-core-rtlsupport-l1-1-0.dll',
   'C:\\Program '
   'Files\\java\\jdk-13\\bin\\api-ms-win-core-rtlsupport-l1-1-0.dll',
   'BINARY'),
  ('api-ms-win-core-errorhandling-l1-1-0.dll',
   'C:\\Program '
   'Files\\java\\jdk-13\\bin\\api-ms-win-core-errorhandling-l1-1-0.dll',
   'BINARY'),
  ('api-ms-win-core-interlocked-l1-1-0.dll',
   'C:\\Program '
   'Files\\java\\jdk-13\\bin\\api-ms-win-core-interlocked-l1-1-0.dll',
   'BINARY'),
  ('api-ms-win-core-handle-l1-1-0.dll',
   'C:\\Program Files\\java\\jdk-13\\bin\\api-ms-win-core-handle-l1-1-0.dll',
   'BINARY'),
  ('api-ms-win-core-synch-l1-2-0.dll',
   'C:\\Program Files\\java\\jdk-13\\bin\\api-ms-win-core-synch-l1-2-0.dll',
   'BINARY'),
  ('api-ms-win-core-namedpipe-l1-1-0.dll',
   'C:\\Program Files\\java\\jdk-13\\bin\\api-ms-win-core-namedpipe-l1-1-0.dll',
   'BINARY'),
  ('api-ms-win-core-timezone-l1-1-0.dll',
   'C:\\Program Files\\java\\jdk-13\\bin\\api-ms-win-core-timezone-l1-1-0.dll',
   'BINARY'),
  ('api-ms-win-core-localization-l1-2-0.dll',
   'C:\\Program '
   'Files\\java\\jdk-13\\bin\\api-ms-win-core-localization-l1-2-0.dll',
   'BINARY'),
  ('api-ms-win-core-file-l2-1-0.dll',
   'C:\\Program Files\\java\\jdk-13\\bin\\api-ms-win-core-file-l2-1-0.dll',
   'BINARY'),
  ('api-ms-win-core-memory-l1-1-0.dll',
   'C:\\Program Files\\java\\jdk-13\\bin\\api-ms-win-core-memory-l1-1-0.dll',
   'BINARY'),
  ('api-ms-win-core-processthreads-l1-1-1.dll',
   'C:\\Program '
   'Files\\java\\jdk-13\\bin\\api-ms-win-core-processthreads-l1-1-1.dll',
   'BINARY'),
  ('api-ms-win-core-string-l1-1-0.dll',
   'C:\\Program Files\\java\\jdk-13\\bin\\api-ms-win-core-string-l1-1-0.dll',
   'BINARY'),
  ('api-ms-win-core-processthreads-l1-1-0.dll',
   'C:\\Program '
   'Files\\java\\jdk-13\\bin\\api-ms-win-core-processthreads-l1-1-0.dll',
   'BINARY'),
  ('api-ms-win-core-file-l1-2-0.dll',
   'C:\\Program Files\\java\\jdk-13\\bin\\api-ms-win-core-file-l1-2-0.dll',
   'BINARY'),
  ('api-ms-win-core-processenvironment-l1-1-0.dll',
   'C:\\Program '
   'Files\\java\\jdk-13\\bin\\api-ms-win-core-processenvironment-l1-1-0.dll',
   'BINARY'),
  ('api-ms-win-core-datetime-l1-1-0.dll',
   'C:\\Program Files\\java\\jdk-13\\bin\\api-ms-win-core-datetime-l1-1-0.dll',
   'BINARY'),
  ('api-ms-win-core-sysinfo-l1-1-0.dll',
   'C:\\Program Files\\java\\jdk-13\\bin\\api-ms-win-core-sysinfo-l1-1-0.dll',
   'BINARY'),
  ('api-ms-win-core-profile-l1-1-0.dll',
   'C:\\Program Files\\java\\jdk-13\\bin\\api-ms-win-core-profile-l1-1-0.dll',
   'BINARY'),
  ('api-ms-win-core-file-l1-1-0.dll',
   'C:\\Program Files\\java\\jdk-13\\bin\\api-ms-win-core-file-l1-1-0.dll',
   'BINARY'),
  ('libopenblas.PYQHXLVVQ7VESDPUVUADXEVJOBGHJPAY.gfortran-win_amd64.dll',
   'c:\\users\\tabuchi '
   'miona\\appdata\\local\\programs\\python\\python37\\lib\\site-packages\\numpy\\.libs\\libopenblas.PYQHXLVVQ7VESDPUVUADXEVJOBGHJPAY.gfortran-win_amd64.dll',
   'BINARY'),
  ('cv2\\opencv_videoio_ffmpeg420_64.dll',
   'c:\\users\\tabuchi '
   'miona\\appdata\\local\\programs\\python\\python37\\lib\\site-packages\\cv2\\opencv_videoio_ffmpeg420_64.dll',
   'BINARY'),
  ('select',
   'c:\\users\\tabuchi '
   'miona\\appdata\\local\\programs\\python\\python37\\DLLs\\select.pyd',
   'EXTENSION'),
  ('_socket',
   'c:\\users\\tabuchi '
   'miona\\appdata\\local\\programs\\python\\python37\\DLLs\\_socket.pyd',
   'EXTENSION'),
  ('_lzma',
   'c:\\users\\tabuchi '
   'miona\\appdata\\local\\programs\\python\\python37\\DLLs\\_lzma.pyd',
   'EXTENSION'),
  ('_bz2',
   'c:\\users\\tabuchi '
   'miona\\appdata\\local\\programs\\python\\python37\\DLLs\\_bz2.pyd',
   'EXTENSION'),
  ('_hashlib',
   'c:\\users\\tabuchi '
   'miona\\appdata\\local\\programs\\python\\python37\\DLLs\\_hashlib.pyd',
   'EXTENSION'),
  ('_ssl',
   'c:\\users\\tabuchi '
   'miona\\appdata\\local\\programs\\python\\python37\\DLLs\\_ssl.pyd',
   'EXTENSION'),
  ('unicodedata',
   'c:\\users\\tabuchi '
   'miona\\appdata\\local\\programs\\python\\python37\\DLLs\\unicodedata.pyd',
   'EXTENSION'),
  ('pyexpat',
   'c:\\users\\tabuchi '
   'miona\\appdata\\local\\programs\\python\\python37\\DLLs\\pyexpat.pyd',
   'EXTENSION'),
  ('_ctypes',
   'c:\\users\\tabuchi '
   'miona\\appdata\\local\\programs\\python\\python37\\DLLs\\_ctypes.pyd',
   'EXTENSION'),
  ('numpy.core._multiarray_tests',
   'c:\\users\\tabuchi '
   'miona\\appdata\\local\\programs\\python\\python37\\lib\\site-packages\\numpy\\core\\_multiarray_tests.cp37-win_amd64.pyd',
   'EXTENSION'),
  ('numpy.core._multiarray_umath',
   'c:\\users\\tabuchi '
   'miona\\appdata\\local\\programs\\python\\python37\\lib\\site-packages\\numpy\\core\\_multiarray_umath.cp37-win_amd64.pyd',
   'EXTENSION'),
  ('win32pdh',
   'c:\\users\\tabuchi '
   'miona\\appdata\\local\\programs\\python\\python37\\lib\\site-packages\\win32\\win32pdh.pyd',
   'EXTENSION'),
  ('numpy.random.mtrand',
   'c:\\users\\tabuchi '
   'miona\\appdata\\local\\programs\\python\\python37\\lib\\site-packages\\numpy\\random\\mtrand.cp37-win_amd64.pyd',
   'EXTENSION'),
  ('numpy.random._sfc64',
   'c:\\users\\tabuchi '
   'miona\\appdata\\local\\programs\\python\\python37\\lib\\site-packages\\numpy\\random\\_sfc64.cp37-win_amd64.pyd',
   'EXTENSION'),
  ('numpy.random._philox',
   'c:\\users\\tabuchi '
   'miona\\appdata\\local\\programs\\python\\python37\\lib\\site-packages\\numpy\\random\\_philox.cp37-win_amd64.pyd',
   'EXTENSION'),
  ('numpy.random._pcg64',
   'c:\\users\\tabuchi '
   'miona\\appdata\\local\\programs\\python\\python37\\lib\\site-packages\\numpy\\random\\_pcg64.cp37-win_amd64.pyd',
   'EXTENSION'),
  ('numpy.random._mt19937',
   'c:\\users\\tabuchi '
   'miona\\appdata\\local\\programs\\python\\python37\\lib\\site-packages\\numpy\\random\\_mt19937.cp37-win_amd64.pyd',
   'EXTENSION'),
  ('numpy.random._bit_generator',
   'c:\\users\\tabuchi '
   'miona\\appdata\\local\\programs\\python\\python37\\lib\\site-packages\\numpy\\random\\_bit_generator.cp37-win_amd64.pyd',
   'EXTENSION'),
  ('numpy.random._generator',
   'c:\\users\\tabuchi '
   'miona\\appdata\\local\\programs\\python\\python37\\lib\\site-packages\\numpy\\random\\_generator.cp37-win_amd64.pyd',
   'EXTENSION'),
  ('numpy.random._bounded_integers',
   'c:\\users\\tabuchi '
   'miona\\appdata\\local\\programs\\python\\python37\\lib\\site-packages\\numpy\\random\\_bounded_integers.cp37-win_amd64.pyd',
   'EXTENSION'),
  ('numpy.random._common',
   'c:\\users\\tabuchi '
   'miona\\appdata\\local\\programs\\python\\python37\\lib\\site-packages\\numpy\\random\\_common.cp37-win_amd64.pyd',
   'EXTENSION'),
  ('numpy.fft._pocketfft_internal',
   'c:\\users\\tabuchi '
   'miona\\appdata\\local\\programs\\python\\python37\\lib\\site-packages\\numpy\\fft\\_pocketfft_internal.cp37-win_amd64.pyd',
   'EXTENSION'),
  ('numpy.linalg._umath_linalg',
   'c:\\users\\tabuchi '
   'miona\\appdata\\local\\programs\\python\\python37\\lib\\site-packages\\numpy\\linalg\\_umath_linalg.cp37-win_amd64.pyd',
   'EXTENSION'),
  ('numpy.linalg.lapack_lite',
   'c:\\users\\tabuchi '
   'miona\\appdata\\local\\programs\\python\\python37\\lib\\site-packages\\numpy\\linalg\\lapack_lite.cp37-win_amd64.pyd',
   'EXTENSION'),
  ('_decimal',
   'c:\\users\\tabuchi '
   'miona\\appdata\\local\\programs\\python\\python37\\DLLs\\_decimal.pyd',
   'EXTENSION'),
  ('cv2.cv2',
   'c:\\users\\tabuchi '
   'miona\\appdata\\local\\programs\\python\\python37\\lib\\site-packages\\cv2\\cv2.cp37-win_amd64.pyd',
   'EXTENSION'),
  ('libcrypto-1_1.dll',
   'c:\\users\\tabuchi '
   'miona\\appdata\\local\\programs\\python\\python37\\DLLs\\libcrypto-1_1.dll',
   'BINARY'),
  ('libssl-1_1.dll',
   'c:\\users\\tabuchi '
   'miona\\appdata\\local\\programs\\python\\python37\\DLLs\\libssl-1_1.dll',
   'BINARY'),
  ('api-ms-win-crt-utility-l1-1-0.dll',
   'C:\\Program Files\\java\\jdk-13\\bin\\api-ms-win-crt-utility-l1-1-0.dll',
   'BINARY'),
  ('pywintypes37.dll',
   'c:\\users\\tabuchi '
   'miona\\appdata\\local\\programs\\python\\python37\\Lib\\site-packages\\pywin32_system32\\pywintypes37.dll',
   'BINARY'),
  ('base_library.zip',
   'D:\\ProgWorkSpace\\tobiieyetracking\\videoEncoder\\build\\tobiiUnpack\\base_library.zip',
   'DATA')],)
