('D:\\ProgWorkSpace\\tobiieyetracking\\videoEncoder\\build\\tobiiUnpack\\PKG-00.pkg',
 {'BINARY': 1,
  'DATA': 1,
  'EXECUTABLE': 1,
  'EXTENSION': 1,
  'PYMODULE': 1,
  'PYSOURCE': 1,
  'PYZ': 0},
 [('PYZ-00.pyz',
   'D:\\ProgWorkSpace\\tobiieyetracking\\videoEncoder\\build\\tobiiUnpack\\PYZ-00.pyz',
   'PYZ'),
  ('struct',
   'c:\\users\\tabuchi '
   'miona\\appdata\\local\\programs\\python\\python37\\lib\\struct.pyo',
   'PYMODULE'),
  ('pyimod01_os_path',
   'c:\\users\\tabuchi '
   'miona\\appdata\\local\\programs\\python\\python37\\lib\\site-packages\\PyInstaller\\loader\\pyimod01_os_path.pyc',
   'PYMODULE'),
  ('pyimod02_archive',
   'c:\\users\\tabuchi '
   'miona\\appdata\\local\\programs\\python\\python37\\lib\\site-packages\\PyInstaller\\loader\\pyimod02_archive.pyc',
   'PYMODULE'),
  ('pyimod03_importers',
   'c:\\users\\tabuchi '
   'miona\\appdata\\local\\programs\\python\\python37\\lib\\site-packages\\PyInstaller\\loader\\pyimod03_importers.pyc',
   'PYMODULE'),
  ('pyiboot01_bootstrap',
   'c:\\users\\tabuchi '
   'miona\\appdata\\local\\programs\\python\\python37\\lib\\site-packages\\PyInstaller\\loader\\pyiboot01_bootstrap.py',
   'PYSOURCE'),
  ('tobiiUnpack',
   'D:\\ProgWorkSpace\\tobiieyetracking\\videoEncoder\\tobiiUnpack.py',
   'PYSOURCE'),
  ('tobiiUnpack.exe.manifest',
   'D:\\ProgWorkSpace\\tobiieyetracking\\videoEncoder\\build\\tobiiUnpack\\tobiiUnpack.exe.manifest',
   'BINARY')],
 True,
 False,
 False,
 [])
